id;login;password_hash;first_name;last_name;email;image_url;activated;lang_key;created_by;last_modified_by
4;user;$2a$10$VEjxo0jq2YG9Rbk2HmX9S.k1uZBGYUHdUcid3g/vfiEl7lwWgOH/K;User;User;user@localhost;;true;en;system;system
5;coordinator;$2a$10$cYgc8tw51A46mhclHAx9HeSmh8e91fF9tfckoW1vJqZbuId0m7hGO;Coordinator;Coordinator;coordinator@localhost;;true;en;system;system
6;nanny;$2a$10$XHOgpbajni6xGH5n0X7KaO4sqbi7IZQsW2.P2UeKw.vtIr4RCDjxK;Nanny;Nanny;nanny@localhost;;true;en;system;system
7;parent2;$2a$10$OBEdow5oNT2IwhWUYPNfpeRYOvtrV8GabhUUrqLirRGYyGxgv07Wa;Parent2;Parent2;parent2@localhost;;true;en;system;system
